<?xml version="1.0" encoding="UTF-8" standalone="no"?>
<!-- Created with Inkscape (http://www.inkscape.org/) -->

<svg
   xmlns:dc="http://purl.org/dc/elements/1.1/"
   xmlns:cc="http://creativecommons.org/ns#"
   xmlns:rdf="http://www.w3.org/1999/02/22-rdf-syntax-ns#"
   xmlns:svg="http://www.w3.org/2000/svg"
   xmlns="http://www.w3.org/2000/svg"
   xmlns:sodipodi="http://sodipodi.sourceforge.net/DTD/sodipodi-0.dtd"
   xmlns:inkscape="http://www.inkscape.org/namespaces/inkscape"
   version="1.2"
   width="604"
   height="850"
   viewBox="0 0 604 850"
   id="Layer_1"
   xml:space="preserve"
   inkscape:version="0.48.4 r9939"
   sodipodi:docname="Keep-calm-and-use-postgres.svg"
   inkscape:export-filename="/home/damien/dev/pg/pgfr/pgfr_materials/advocacy/posters/keepcalm/Keep-calm-and-use-postgres.png"
   inkscape:export-xdpi="86.304222"
   inkscape:export-ydpi="86.304222"><sodipodi:namedview
     pagecolor="#ffffff"
     bordercolor="#666666"
     borderopacity="1"
     objecttolerance="10"
     gridtolerance="10"
     guidetolerance="10"
     inkscape:pageopacity="0"
     inkscape:pageshadow="2"
     inkscape:window-width="1099"
     inkscape:window-height="699"
     id="namedview3087"
     showgrid="false"
     inkscape:zoom="0.28235294"
     inkscape:cx="302"
     inkscape:cy="417.91667"
     inkscape:window-x="444"
     inkscape:window-y="92"
     inkscape:window-maximized="0"
     inkscape:current-layer="layer2" /><metadata
     id="metadata3530"><rdf:RDF><cc:Work
         rdf:about=""><dc:format>image/svg+xml</dc:format><dc:type
           rdf:resource="http://purl.org/dc/dcmitype/StillImage" /><dc:title></dc:title></cc:Work></rdf:RDF></metadata><defs
     id="defs3528" /><rect
     width="604"
     height="850"
     x="-1"
     y="0"
     id="rect3388"
     style="fill:#d00000;stroke:#d00000;stroke-width:0.0938" /><g
     id="g3390"><path
       d="m 293.494,50.553 c 4.597,-0.35 9.096,-0.299 13.602,0.054 -1.762,3.719 -3.924,7.242 -5.681,10.962 2.687,-1.131 5.173,-2.358 7.759,-3.686 0.141,3.799 0.084,7.699 -0.174,11.502 -2.412,-1.074 -4.625,-2.45 -6.939,-3.725 0.018,1.799 0.039,3.599 0.059,5.499 3.418,1.765 6.949,4.426 7.096,8.624 0.574,6.895 -7.971,11.988 -13.807,8.651 -4.92,-1.946 -6.793,-8.427 -3.941,-12.757 1.473,-2.617 4.463,-3.549 6.947,-4.978 -0.021,-1.899 -0.043,-3.898 -0.164,-5.798 -2.284,1.425 -4.668,2.85 -7.154,4.178 -0.246,-4.197 -0.291,-8.297 0.063,-12.4 2.619,1.672 5.136,3.343 7.851,4.714 -1.638,-3.682 -3.677,-7.259 -5.517,-10.84 z"
       id="path3392"
       style="fill:#ffffff;stroke:#ffffff;stroke-width:0.0938" /><path
       d="m 293.383,76.957 c 1.587,-1.217 3.172,-2.334 4.861,-3.453 0.021,1.8 0.039,3.6 -0.041,5.3 -1.606,-0.583 -3.213,-1.165 -4.82,-1.847 z"
       id="path3394"
       style="fill:#d00000;stroke:#d00000;stroke-width:0.0938" /><path
       d="m 302.152,74.06 c 1.311,1.187 2.627,2.473 3.84,3.759 -1.297,0.414 -2.592,0.828 -3.885,1.342 -0.019,-1.699 -0.037,-3.4 0.045,-5.101 z"
       id="path3396"
       style="fill:#d00000;stroke:#d00000;stroke-width:0.0938" /><path
       d="m 280.252,83.3 c 2.181,-1.824 6.299,-0.169 6.23,2.732 0.332,2.697 -2.75,4.631 -5.16,3.756 -3.204,-0.364 -3.955,-5.056 -1.07,-6.488 z"
       id="path3398"
       style="fill:#ffffff;stroke:#ffffff;stroke-width:0.0938" /><path
       d="m 293.256,83.758 c 3.894,-0.643 8.486,-1.293 11.523,1.974 -3.984,1.545 -8.584,1.494 -11.523,-1.974 z"
       id="path3400"
       style="fill:#d00000;stroke:#d00000;stroke-width:0.0938" /><path
       d="m 312.246,82.85 c 2.775,-2.33 7.52,1.319 5.652,4.54 -1.07,2.812 -5.869,3.064 -6.902,0.076 -1.217,-1.589 -0.139,-3.599 1.25,-4.616 z"
       id="path3402"
       style="fill:#ffffff;stroke:#ffffff;stroke-width:0.0938" /><path
       d="m 269.275,85.42 c 2.48,-1.728 6.507,0.628 5.938,3.636 -0.472,2.405 -3.649,4.439 -5.767,2.863 -2.813,-1.069 -2.76,-5.27 -0.171,-6.499 z"
       id="path3404"
       style="fill:#ffffff;stroke:#ffffff;stroke-width:0.0938" /><path
       d="m 324.281,85.82 c 3.383,-1.339 7.24,3.521 3.865,5.958 -1.578,2.018 -4.785,1.554 -6.008,-0.533 -1.621,-1.883 -0.052,-4.802 2.143,-5.425 z"
       id="path3406"
       style="fill:#ffffff;stroke:#ffffff;stroke-width:0.0938" /><path
       d="m 257.351,92.551 c 0.359,-3.704 7.154,-4.277 7.298,-0.18 0.528,2.493 -2.062,3.522 -3.648,4.74 -1.514,-1.283 -4.025,-2.256 -3.65,-4.56 z"
       id="path3408"
       style="fill:#ffffff;stroke:#ffffff;stroke-width:0.0938" /><path
       d="m 334.426,90.009 c 1.988,-1.021 5.303,0.143 5.229,2.544 0.738,3.29 -3.74,5.54 -6.062,3.265 -2.316,-1.274 -1.357,-4.985 0.833,-5.809 z"
       id="path3410"
       style="fill:#ffffff;stroke:#ffffff;stroke-width:0.0938" /><path
       d="m 240.54,109.937 c 14.094,-9.758 30.526,-16.136 47.397,-18.82 2.572,6.573 5.045,13.246 6.222,20.233 -1.299,0.214 -2.596,0.328 -3.794,0.542 -1.162,-5.688 -2.825,-11.372 -5.083,-16.646 -19.157,3.909 -37.67,12.212 -52.225,25.472 -1.007,-0.59 -2.015,-1.278 -3.021,-1.867 3.062,-3.533 6.731,-6.273 10.504,-8.914 z"
       id="path3412"
       style="fill:#ffffff;stroke:#ffffff;stroke-width:0.0938" /><path
       d="m 297.542,91.513 c 4.376,-2.148 7.556,5.115 2.872,6.666 -4.279,1.848 -7.154,-4.819 -2.872,-6.666 z"
       id="path3414"
       style="fill:#ffffff;stroke:#ffffff;stroke-width:0.0938" /><path
       d="m 310.345,91.773 c 20.838,3.371 40.445,12.958 56.297,26.786 -0.795,0.908 -1.582,1.816 -2.471,2.827 -14.641,-12.841 -32.539,-21.646 -51.584,-25.538 -2.141,5.423 -3.977,10.943 -5.219,16.558 -1.201,-0.188 -2.504,-0.373 -3.705,-0.559 1.427,-6.915 3.85,-13.643 6.682,-20.074 z"
       id="path3416"
       style="fill:#ffffff;stroke:#ffffff;stroke-width:0.0938" /><path
       d="m 248.695,96.545 c -0.022,-1.998 2.677,-2.229 4.065,-3.144 1.013,1.089 1.923,2.178 2.937,3.267 -1.086,1.213 -1.661,3.618 -3.663,3.44 -1.898,0.121 -4.018,-1.555 -3.339,-3.563 z"
       id="path3418"
       style="fill:#ffffff;stroke:#ffffff;stroke-width:0.0938" /><path
       d="m 343.687,95.508 c 1.793,-0.322 4.191,-0.746 5.113,1.243 1.316,1.486 -0.053,4.302 -1.951,4.422 -1.994,0.622 -3.217,-1.265 -4.527,-2.251 0.391,-0.802 0.973,-2.51 1.365,-3.414 z"
       id="path3420"
       style="fill:#ffffff;stroke:#ffffff;stroke-width:0.0938" /><path
       d="m 239.059,102.551 c 1.374,-2.517 3.864,-3.243 6.572,-2.673 0.119,1.699 0.039,3.501 -0.044,5.202 -2.694,0.629 -5.101,-0.045 -6.528,-2.529 z"
       id="path3422"
       style="fill:#ffffff;stroke:#ffffff;stroke-width:0.0938" /><path
       d="m 295.067,102.939 c 1.372,-2.716 3.862,-3.342 6.669,-2.674 0.02,1.702 0.037,3.401 -0.043,5.203 -2.694,0.628 -5.198,0.056 -6.626,-2.529 z"
       id="path3424"
       style="fill:#ffffff;stroke:#ffffff;stroke-width:0.0938" /><path
       d="m 353.344,100.602 c 4.279,-2.046 6.357,5.232 1.76,5.582 -3.587,1.038 -5.052,-4.645 -1.76,-5.582 z"
       id="path3426"
       style="fill:#ffffff;stroke:#ffffff;stroke-width:0.0938" /><path
       d="m 232.892,105.72 c 1.901,-0.021 3.809,0.656 5.42,1.739 -0.788,1.108 -1.475,2.318 -2.364,3.326 -1.4,-0.084 -2.705,-0.569 -4.01,-0.856 0.285,-1.403 0.571,-2.805 0.954,-4.209 z"
       id="path3428"
       style="fill:#ffffff;stroke:#ffffff;stroke-width:0.0938" /><path
       d="m 255.597,105.971 c 6.158,5.233 9.645,13.195 9.033,21.303 1.886,-1.421 3.769,-3.041 6.162,-3.567 5.785,-1.264 11.849,4.471 11.213,10.277 0.348,4.396 -2.713,7.931 -5.683,10.764 -1.131,-2.888 -0.877,-7.092 -4.194,-8.556 -3.618,-1.661 -7.983,1.588 -8.24,5.391 -0.749,4.809 2.505,9.674 6.924,11.426 6.633,3.127 15.119,1.734 20.162,-3.622 2.965,-3.132 4.318,-7.246 4.975,-11.454 -3.489,1.238 -6.466,3.271 -9.647,5.006 -0.374,-6.696 -0.045,-13.501 0.581,-20.206 2.826,2.368 5.451,4.94 8.378,7.208 -1.454,-4.984 -3.607,-9.761 -5.062,-14.746 5.599,-0.16 11.2,-0.122 16.703,0.217 -1.447,4.718 -3.398,9.339 -4.945,14.056 3.178,-1.935 6.152,-4.368 9.533,-6.005 0.273,6.697 0.148,13.5 -0.479,20.206 -2.723,-1.869 -5.342,-3.841 -8.158,-5.312 0.031,2.901 0.064,6 1.594,8.583 2.76,5.473 9.191,8.401 15.189,8.136 6.701,-0.073 12.525,-6.837 11.254,-13.523 -0.531,-3.095 -3.869,-6.159 -7.254,-4.922 -3.09,1.034 -3.549,4.839 -4.92,7.454 -3.641,-3.66 -4.701,-9.249 -3.254,-14.065 1.551,-4.517 6.924,-6.774 11.338,-5.823 2.607,0.771 4.334,3.054 6.055,5.034 -1.395,-8.585 2.709,-17.431 9.348,-22.904 3.887,7.759 3.688,17.062 -0.129,24.803 3.58,-2.139 7.754,-4.583 12.068,-2.832 6.326,2.031 7.518,10.22 5.076,15.646 -1.758,4.119 -5.83,6.264 -9.611,8.205 0.463,-3.305 2.422,-7.027 0.289,-10.103 -1.43,-2.687 -5.531,-2.843 -7.51,-0.819 -3.369,3.036 -4.109,8.446 -1.768,12.222 3.467,6.061 11.395,8.573 17.773,6.405 7.676,-2.185 12.496,-9.438 14.617,-16.762 -3.686,1.341 -7.268,2.979 -11.059,3.922 1.436,-6.017 3.771,-11.843 6.008,-17.567 2.33,2.575 4.557,5.151 6.979,7.523 -0.447,-4.595 -1.893,-8.978 -3.342,-13.263 4.111,0.955 8.225,2.109 12.24,3.368 -1.17,3.011 -2.637,5.926 -3.605,9.038 -0.176,2.202 0.65,4.493 0.275,6.697 -0.865,3.209 -4.148,4.946 -5.113,8.057 -1.457,4.016 -3.01,8.132 -4.166,12.245 0.348,4.396 1.992,8.579 2.84,12.872 -3.551,4.338 -7.305,8.479 -10.959,12.819 -24.504,-9.233 -51.148,-13.242 -77.221,-10.658 -14.989,1.064 -29.971,2.729 -44.427,6.886 -2.692,0.73 -5.277,2.158 -8.174,2.39 -3.933,-2.957 -7.373,-6.521 -10.809,-9.981 -0.158,-5.2 2.889,-10.232 1.23,-15.516 -0.941,-3.689 -1.883,-7.479 -2.924,-11.269 -0.64,-3.692 -5.155,-5.045 -5.396,-8.841 0.068,-2.901 1.237,-5.814 0.503,-8.708 -0.628,-2.691 -1.658,-5.38 -2.287,-8.072 4.686,-1.254 9.47,-2.704 14.362,-3.458 -2.25,4.524 -5.206,8.757 -7.154,13.377 3.684,-1.54 6.552,-4.371 9.323,-7.102 1.974,6.878 4.051,13.857 5.127,20.945 -3.727,-2.459 -7.355,-5.221 -11.772,-6.571 1.792,8.481 8.183,16.711 17.193,17.512 7.606,0.718 17.351,-4.588 16.457,-13.279 0.143,-5.101 -5.601,-9.14 -10.172,-6.589 -4.578,2.05 -3.815,7.842 -3.769,11.941 -8.043,-3.913 -10.285,-16.589 -2.744,-22.172 3.86,-3.542 9.467,-3.102 13.989,-1.153 -3.476,-7.163 -2.87,-15.771 1.156,-22.514 z"
       id="path3430"
       style="fill:#ffffff;stroke:#ffffff;stroke-width:0.0938" /><path
       d="m 361.613,106.612 c 1.494,-0.315 2.9,0.47 4.307,0.854 -0.385,1.404 -0.867,2.91 -1.352,4.316 -1.004,-0.09 -2.904,-0.17 -3.807,-0.259 -0.115,-1.698 -0.841,-3.792 0.852,-4.911 z"
       id="path3432"
       style="fill:#ffffff;stroke:#ffffff;stroke-width:0.0938" /><path
       d="m 297.427,108.415 c 1.096,-0.212 2.196,-0.324 3.196,-0.335 0.116,1.399 0.229,2.797 0.246,4.197 -1.4,0.114 -2.699,0.33 -4.094,0.545 -0.016,-1.5 -1.241,-3.687 0.652,-4.407 z"
       id="path3434"
       style="fill:#ffffff;stroke:#ffffff;stroke-width:0.0938" /><path
       d="m 224.992,114.807 c 1.173,-2.314 3.162,-3.537 5.769,-2.864 0.016,1.501 -0.069,2.9 -0.151,4.401 -1.999,0.223 -4.005,-0.356 -5.618,-1.537 z"
       id="path3436"
       style="fill:#ffffff;stroke:#ffffff;stroke-width:0.0938" /><path
       d="m 367.279,112.751 c 1.695,-0.219 3.297,-0.236 4.996,-0.154 0.012,0.899 0.033,2.9 0.041,3.901 -1.496,0.216 -2.994,0.332 -4.492,0.447 -0.217,-1.397 -0.434,-2.794 -0.545,-4.194 z"
       id="path3438"
       style="fill:#ffffff;stroke:#ffffff;stroke-width:0.0938" /><path
       d="m 297.587,132.213 c 1.281,-1.514 3.51,0.861 2.123,2.177 -1.385,1.415 -3.609,-0.86 -2.123,-2.177 z"
       id="path3440"
       style="fill:#d00000;stroke:#d00000;stroke-width:0.0938" /><path
       d="m 220.224,145.161 c -2.422,-1.974 -2.956,-4.97 -1.987,-7.881 1.826,2.28 2.357,5.076 1.987,7.881 z"
       id="path3442"
       style="fill:#d00000;stroke:#d00000;stroke-width:0.0938" /><path
       d="m 376.853,138.049 c 0.916,1.589 1.236,3.386 1.455,5.183 -1.09,0.713 -2.285,1.427 -3.375,2.138 0.17,-2.602 0.844,-5.01 1.92,-7.321 z"
       id="path3444"
       style="fill:#d00000;stroke:#d00000;stroke-width:0.0938" /><path
       d="m 293.936,164.157 c 1.273,-2.416 2.545,-4.729 3.822,-7.144 1.323,2.285 2.649,4.57 3.975,6.857 -1.273,2.514 -2.648,4.928 -4.019,7.444 -1.328,-2.386 -2.554,-4.772 -3.778,-7.157 z"
       id="path3446"
       style="fill:#d00000;stroke:#d00000;stroke-width:0.0938" /><path
       d="m 279.479,159.213 c 1.505,0.383 3.011,0.867 4.418,1.451 -0.69,1.108 -1.377,2.214 -2.063,3.324 -1.004,-0.39 -1.91,-0.78 -2.913,-1.169 0.187,-1.203 0.374,-2.402 0.558,-3.606 z"
       id="path3448"
       style="fill:#d00000;stroke:#d00000;stroke-width:0.0938" /><path
       d="m 311.48,159.263 c 1.203,-0.013 2.402,0.075 3.701,0.06 0.016,1.301 0.129,2.6 0.145,3.9 -1.303,0.013 -2.6,0.128 -3.898,0.241 -0.018,-1.4 -0.03,-2.799 0.052,-4.201 z"
       id="path3450"
       style="fill:#d00000;stroke:#d00000;stroke-width:0.0938" /><path
       d="m 259.095,160.736 c 5.172,-2.657 14.901,-0.062 13.378,7.153 -2.422,7.029 -14.11,8.256 -17.98,1.797 -1.741,-3.78 1.218,-7.514 4.602,-8.95 z"
       id="path3452"
       style="fill:#d00000;stroke:#d00000;stroke-width:0.0938" /><path
       d="m 327.099,160.892 c 5.48,-1.959 14.121,1.548 13.293,8.256 -2.52,7.527 -15.127,6.767 -18.201,0.099 -1.439,-3.784 1.117,-7.513 4.908,-8.355 z"
       id="path3454"
       style="fill:#d00000;stroke:#d00000;stroke-width:0.0938" /><path
       d="m 241.547,165.529 c 2.003,0.377 3.118,1.664 3.738,3.558 -1.094,0.413 -2.189,0.925 -3.283,1.437 -0.406,-0.496 -1.415,-1.385 -1.92,-1.878 0.39,-0.807 1.074,-2.313 1.465,-3.117 z"
       id="path3456"
       style="fill:#d00000;stroke:#d00000;stroke-width:0.0938" /><path
       d="m 350.455,165.64 c 1.4,0.083 2.801,0.067 4.102,0.154 0.123,1.998 -0.662,3.707 -2.551,4.527 -0.506,-0.595 -1.52,-1.684 -1.926,-2.181 0.094,-0.598 0.281,-1.801 0.375,-2.5 z"
       id="path3458"
       style="fill:#d00000;stroke:#d00000;stroke-width:0.0938" /><path
       d="m 280.282,168.705 c 1,-0.111 2.101,-0.123 3.2,-0.236 0.41,0.897 0.819,1.692 1.227,2.589 -0.592,0.606 -1.285,1.213 -1.878,1.82 -0.905,-0.29 -1.908,-0.68 -2.813,-0.97 0.087,-1.101 0.179,-2.101 0.264,-3.203 z"
       id="path3460"
       style="fill:#d00000;stroke:#d00000;stroke-width:0.0938" /><path
       d="m 226.357,175.796 c 0.279,-2.005 0.756,-4.011 1.235,-5.917 1.318,1.486 2.933,2.969 3.952,4.758 0.022,1.899 -0.358,3.805 -0.537,5.709 -1.714,-1.383 -3.53,-2.763 -4.65,-4.55 z"
       id="path3462"
       style="fill:#d00000;stroke:#d00000;stroke-width:0.0938" /><path
       d="m 309.424,172.287 c 0.688,-1.007 1.379,-2.114 2.066,-3.123 0.803,0.392 2.412,1.274 3.219,1.665 -0.785,1.309 -1.574,2.519 -2.361,3.728 -0.805,-0.593 -2.219,-1.678 -2.924,-2.27 z"
       id="path3464"
       style="fill:#d00000;stroke:#d00000;stroke-width:0.0938" /><path
       d="m 363.459,175.198 c 1.479,-1.918 2.957,-3.735 4.541,-5.552 0.822,2.092 1.547,4.284 2.369,6.376 -1.479,1.815 -3.061,3.633 -4.639,5.451 -0.724,-2.092 -1.447,-4.185 -2.271,-6.275 z"
       id="path3466"
       style="fill:#d00000;stroke:#d00000;stroke-width:0.0938" /><path
       d="m 241.654,175.328 c 0.997,-0.31 1.992,-0.722 2.989,-1.032 0.506,0.595 1.622,1.882 2.129,2.576 -1.288,1.013 -2.68,1.831 -4.275,2.348 -0.213,-0.999 -0.632,-2.895 -0.843,-3.892 z"
       id="path3468"
       style="fill:#d00000;stroke:#d00000;stroke-width:0.0938" /><path
       d="m 348.849,174.256 c 0.902,0.391 1.809,0.881 2.713,1.271 0.01,0.7 0.021,2 0.029,2.6 -0.797,0.41 -1.594,0.719 -2.488,1.128 -0.506,-0.494 -1.516,-1.384 -2.121,-1.877 0.588,-1.107 1.176,-2.114 1.867,-3.122 z"
       id="path3470"
       style="fill:#d00000;stroke:#d00000;stroke-width:0.0938" /><path
       d="m 247.967,185.66 c 13.467,-3.148 27.258,-3.998 40.949,-4.947 19.393,-0.712 39.1,-0.128 57.953,4.768 5.018,1.345 10.434,2.986 14.08,6.946 -3.557,4.238 -9.25,4.902 -14.238,5.956 -10.086,1.61 -20.377,2.223 -30.572,2.634 -20.497,0.423 -41.2,0.25 -61.534,-2.929 -6.414,-1.129 -13.325,-2.154 -18.571,-6.397 2.655,-4.031 7.643,-4.985 11.933,-6.031 z"
       id="path3472"
       style="fill:#ffffff;stroke:#ffffff;stroke-width:0.0938" /><path
       d="m 143.81,236 c 5.4,-0.06 10.9,-0.12 16.399,-0.18 -0.06,12.903 -0.119,25.804 0.023,38.803 10.574,-11.716 21.146,-23.432 31.62,-35.247 1.585,-1.316 2.658,-3.729 4.958,-3.755 5.898,-0.265 11.901,-0.13 17.9,-0.195 -12.746,14.34 -25.487,28.681 -38.435,42.922 13.561,14.552 27.319,29.004 40.582,43.76 -7.101,0.077 -14.198,0.354 -21.301,0.134 -3.117,-1.466 -4.951,-4.647 -7.277,-7.021 -9.51,-9.997 -18.725,-20.397 -28.432,-30.091 -0.164,12.401 -0.129,24.703 -0.194,37.103 -5.5,0.061 -10.999,0.12 -16.597,0.182 0.485,-28.809 0.268,-57.608 0.754,-86.415 z"
       id="path3474"
       style="fill:#ffffff;stroke:#ffffff;stroke-width:0.0938" /><path
       d="m 231.309,235.444 c 19.397,-0.412 38.905,0.074 58.402,-0.237 0.045,4.199 -0.209,8.301 -0.265,12.404 -13.998,0.252 -28,0.105 -41.899,0.257 -0.12,7.401 0.06,14.801 0.041,22.201 14.002,-0.054 27.901,-0.205 41.902,-0.259 0.047,4.301 -0.008,8.602 0.038,12.801 -13.999,0.053 -27.998,0.205 -41.998,0.259 0.195,8.598 0.088,17.201 0.08,25.801 14.001,-0.054 28.002,-0.205 42.101,-0.259 -0.052,4.4 -0.003,8.899 -0.054,13.301 -19.399,0.312 -38.9,0.225 -58.4,0.438 0.383,-28.907 0.067,-57.805 0.052,-86.707 z"
       id="path3476"
       style="fill:#ffffff;stroke:#ffffff;stroke-width:0.0938" /><path
       d="m 314.31,235.238 c 19.303,0.089 38.598,-0.422 58.008,0.166 -0.059,4.001 -0.014,8.1 0.031,12.201 -13.998,0.151 -28.002,0.005 -41.896,0.157 0.078,7.398 0.059,14.801 0.139,22.199 13.998,-0.153 27.9,-0.104 41.9,-0.157 -0.053,4.201 -0.01,8.4 0.037,12.6 -13.898,0.053 -27.898,0.405 -41.799,0.057 0.094,8.6 0.086,17.2 0.182,25.801 13.994,-0.354 27.9,0.095 41.898,0.043 0.049,4.498 0.1,8.897 0.049,13.4 -19.402,0.01 -38.701,0.022 -58.1,0.135 -0.216,-28.902 -0.433,-57.8 -0.449,-86.602 z"
       id="path3478"
       style="fill:#ffffff;stroke:#ffffff;stroke-width:0.0938" /><path
       d="m 396.416,235.341 c 10.398,-0.113 20.699,-0.025 31.104,0.061 7.9,-0.087 15.732,3.027 21.496,8.465 11.014,10.48 11.531,30.177 0.547,40.897 -3.564,3.438 -7.941,5.886 -12.623,7.537 -7.17,2.579 -14.984,1.464 -22.482,1.745 0.303,9.299 0.305,18.499 0.305,27.8 -5.799,0.162 -11.6,-0.174 -17.504,-0.21 -0.415,-28.695 -0.429,-57.497 -0.843,-86.295 z"
       id="path3480"
       style="fill:#ffffff;stroke:#ffffff;stroke-width:0.0938" /><path
       d="m 413.847,247.451 c 7.1,-0.077 14.998,-0.663 20.85,3.973 9.277,6.899 7.055,23.625 -3.799,27.844 -5.283,1.758 -11.096,0.62 -16.59,0.979 -0.119,-10.898 -0.14,-21.798 -0.461,-32.796 z"
       id="path3482"
       style="fill:#d00000;stroke:#d00000;stroke-width:0.0938" /><path
       d="m 136.362,377.989 c 11.689,-10.326 28.445,-14.312 43.486,-10.675 10.224,2.188 19.386,7.789 26.269,15.514 -3.958,3.742 -8.018,7.388 -11.976,11.332 -6.671,-6.529 -15.428,-11.733 -25.027,-11.43 -13.304,-0.354 -26.506,8.592 -30.064,21.631 -2.891,10.031 0.635,21.496 8.508,28.309 9.9,9.091 25.717,10.621 37.245,3.694 3.975,-2.245 7.239,-5.481 10.203,-8.911 3.844,3.957 7.29,8.22 11.033,12.278 -9.498,9.202 -21.618,16.639 -35.114,17.185 -15.089,0.965 -30.561,-5.468 -40.09,-17.263 -6.588,-8.028 -10.203,-18.39 -9.916,-28.793 -0.038,-12.601 5.831,-24.864 15.443,-32.871 z"
       id="path3484"
       style="fill:#ffffff;stroke:#ffffff;stroke-width:0.0938" /><path
       d="m 250.06,368.047 c 4.397,-0.147 8.799,-0.096 13.198,-0.145 14.214,28.746 28.431,57.593 42.444,86.542 -5.895,0.264 -11.797,0.126 -17.695,0.192 -3.263,-5.665 -6.325,-11.433 -9.291,-17.3 -13.998,0.153 -27.904,-0.296 -41.902,-0.043 -2.737,5.93 -5.672,11.863 -8.708,17.695 -6.3,-0.028 -12.599,0.038 -19.001,0.006 13.484,-29.144 27.47,-57.897 40.955,-86.947 z"
       id="path3486"
       style="fill:#ffffff;stroke:#ffffff;stroke-width:0.0938" /><path
       d="m 318.656,367.497 c 5.998,-0.165 12.006,0.271 18.006,0.304 0.055,23.501 0.414,47 0.365,70.401 13.701,-0.25 27.307,0.203 41.002,0.054 -0.037,5.399 0.02,10.699 0.078,16.098 -19.693,0.416 -39.303,0.027 -59.002,0.144 -0.215,-29.001 -0.234,-58.001 -0.449,-87.001 z"
       id="path3488"
       style="fill:#ffffff;stroke:#ffffff;stroke-width:0.0938" /><path
       d="m 395.66,367.558 c 6.301,0.03 12.598,-0.239 18.902,0.191 7.855,13.915 15.805,27.829 23.658,41.746 7.748,-13.986 15.9,-27.878 23.846,-41.764 6.102,-0.067 12.203,-0.034 18.404,-0.101 0.312,28.698 0.428,57.396 0.637,86.096 -5.297,0.161 -10.701,0.021 -15.998,0.177 -0.102,-18.402 -0.004,-36.805 -0.404,-55.1 -9.043,14.3 -17.381,28.992 -26.227,43.389 -9.055,-14 -17.113,-28.616 -25.77,-42.919 0.096,18.297 0.299,36.597 0.396,54.797 -5.598,0.161 -11.295,0.224 -16.896,0.184 -0.114,-28.9 -0.429,-57.797 -0.548,-86.696 z"
       id="path3490"
       style="fill:#ffffff;stroke:#ffffff;stroke-width:0.0938" /><path
       d="m 243.458,422.821 c 4.491,-9.951 9.186,-19.7 13.776,-29.651 4.906,9.746 9.417,19.697 14.225,29.446 -9.301,0.203 -18.702,0.105 -28.001,0.205 z"
       id="path3492"
       style="fill:#d00000;stroke:#d00000;stroke-width:0.0938" /><path
       d="m 254.722,492.702 c 2.096,-0.321 4.097,-0.245 6.197,-0.165 6.448,13.429 13.193,26.856 19.641,40.385 -2.8,0.031 -5.597,0.061 -8.5,0.094 -1.427,-2.684 -2.957,-5.365 -4.386,-8.053 -6.399,0.072 -12.7,0.14 -19.1,0.108 -1.371,2.717 -2.741,5.433 -4.113,8.044 -2.998,0.136 -6.1,0.07 -9.099,0.104 4.984,-10.654 9.968,-21.212 14.954,-31.867 1.468,-2.918 2.534,-6.028 4.406,-8.65 z"
       id="path3494"
       style="fill:#ffffff;stroke:#ffffff;stroke-width:0.0938" /><path
       d="m 285.921,492.363 c 2.899,-0.032 5.8,-0.065 8.798,0.004 5.19,8.343 10.88,16.384 16.371,24.72 0.012,-8.098 -0.277,-16.196 -0.062,-24.201 2.383,-1.225 5.395,-0.455 7.992,-0.784 0.045,13.599 0.094,27.2 0.146,40.9 -2.402,0.028 -4.9,0.054 -7.4,0.082 -5.799,-8.839 -11.796,-17.674 -17.592,-26.61 -0.103,8.9 -0.006,17.799 -0.009,26.701 -2.699,0.03 -5.398,0.059 -8.1,0.087 -0.149,-13.598 -0.198,-27.297 -0.144,-40.899 z"
       id="path3496"
       style="fill:#ffffff;stroke:#ffffff;stroke-width:0.0938" /><path
       d="m 330.517,492.077 c 6,0.032 11.9,-0.131 17.902,-0.099 10,-0.007 19.598,8.889 19.01,19.198 0.812,10.389 -7.787,19.683 -17.77,21.294 -6.293,0.869 -12.799,0.24 -19.193,0.512 -0.251,-13.6 0.301,-27.206 0.051,-40.905 z"
       id="path3498"
       style="fill:#ffffff;stroke:#ffffff;stroke-width:0.0938" /><path
       d="m 340,499.673 c 4.705,0.25 10.592,-1.115 14.133,2.946 5.857,5.035 4.67,15.348 -1.787,19.321 -3.572,2.637 -8.178,2.187 -12.277,2.234 0.011,-8.203 -0.079,-16.301 -0.069,-24.501 z"
       id="path3500"
       style="fill:#d00000;stroke:#d00000;stroke-width:0.0938" /><path
       d="m 257.754,504.869 c 2.348,4.278 4.397,8.754 6.746,13.129 -4.301,0.046 -8.602,-0.007 -12.9,0.038 2.151,-4.318 4.203,-8.742 6.154,-13.167 z"
       id="path3502"
       style="fill:#d00000;stroke:#d00000;stroke-width:0.0938" /><path
       d="m 105.443,587.039 c 11.061,-12.821 29.189,-19.321 45.928,-15.801 12.622,1.864 23.109,9.848 31.412,19.056 -3.959,3.743 -8.122,7.189 -12.284,10.836 -6.886,-7.925 -16.355,-14.224 -27.055,-14.407 -14.713,-0.938 -29.088,10.621 -31.03,25.242 -1.19,9.915 3.022,20.27 10.693,26.684 10.296,8.589 26.104,9.418 37.429,2.391 3.08,-1.832 5.55,-4.459 8.124,-6.986 3.051,4.767 6.503,9.327 9.653,13.995 -7.524,7.081 -16.968,12.185 -27.151,13.796 -14.977,2.162 -30.929,-2.561 -42.144,-12.841 -16.77,-15.615 -18.386,-44.503 -3.575,-61.965 z"
       id="path3504"
       style="fill:#ffffff;stroke:#ffffff;stroke-width:0.0938" /><path
       d="m 220.396,572.986 c 4.799,-0.154 9.699,-0.108 14.5,-0.062 13.42,29.253 26.943,58.609 40.064,88.065 -6.5,0.071 -12.897,0.14 -19.298,0.213 -2.566,-6.072 -5.332,-11.943 -7.796,-17.918 -13.3,0.049 -26.601,0.093 -39.902,0.139 -2.735,5.929 -5.069,11.957 -8.106,17.686 -6.191,0.87 -12.499,0.137 -18.797,0.407 13.077,-29.542 26.256,-58.992 39.335,-88.53 z"
       id="path3506"
       style="fill:#ffffff;stroke:#ffffff;stroke-width:0.0938" /><path
       d="m 281.795,572.613 c 10.8,-0.219 21.6,-0.037 32.398,-0.254 9.697,-0.505 19.059,5.394 23.75,13.644 3.979,7.053 3.172,15.664 0.148,22.896 -2.236,5.424 -6.793,9.477 -11.762,12.329 3.021,1.869 6.137,3.735 7.773,6.918 5.115,10.543 7.939,21.913 12.756,32.46 -6.102,-0.134 -12.289,0.834 -18.305,-0.199 -4.299,-9.152 -5.416,-19.742 -11.207,-28.181 -2.232,-2.774 -5.062,-5.544 -8.766,-5.806 -3.502,-0.258 -6.898,-0.024 -10.398,-0.081 0.225,11.597 0.152,23.198 0.178,34.796 -5.498,0.059 -10.898,0.118 -16.398,0.18 0.278,-29.604 -0.144,-59.105 -0.167,-88.702 z"
       id="path3508"
       style="fill:#ffffff;stroke:#ffffff;stroke-width:0.0938" /><path
       d="m 356.693,572.193 c 10.9,-0.316 21.699,-0.336 32.5,-0.353 9.994,-0.312 19.766,5.984 23.963,14.938 5.232,12.243 -0.293,28.105 -12.43,33.841 2.918,1.767 6.037,3.432 7.67,6.515 5.316,10.541 7.939,22.113 13.062,32.755 -6.205,0.269 -12.404,0.137 -18.502,0.303 -3.396,-8.859 -5.199,-18.239 -9.693,-26.695 -2.439,-3.973 -6.387,-7.929 -11.383,-7.773 -3.002,-0.065 -5.902,0.064 -8.9,0.099 0.426,11.495 0.053,23.1 -0.123,34.6 -5.398,0.158 -10.697,0.119 -16.098,0.175 -0.222,-29.498 0.157,-59.004 -0.066,-88.405 z"
       id="path3510"
       style="fill:#ffffff;stroke:#ffffff;stroke-width:0.0938" /><path
       d="m 416.994,571.936 c 6.9,-0.174 13.701,-0.25 20.598,-0.224 7.934,12.112 16.066,24.125 24,36.34 7.965,-12.29 16.234,-24.479 24.199,-36.767 7,-0.076 13.9,-0.152 20.9,-0.229 -12.018,17.032 -24.135,33.868 -36.25,50.797 -1.184,1.415 -0.863,3.411 -0.943,5.114 0.219,10.796 0.137,21.6 0.252,32.296 -5.795,0.265 -11.498,0.227 -17.293,0.389 -0.135,-12.099 0.33,-24.2 -0.295,-36.297 -11.492,-17.274 -23.483,-34.248 -35.168,-51.419 z"
       id="path3512"
       style="fill:#ffffff;stroke:#ffffff;stroke-width:0.0938" /><path
       d="m 298.048,586.535 c 6.804,0.327 14.681,-1.759 20.53,2.876 7.262,5.321 5.402,18.243 -2.965,21.33 -5.578,1.964 -11.689,1.031 -17.487,1.294 0.008,-8.5 0.015,-16.999 -0.078,-25.5 z"
       id="path3514"
       style="fill:#d00000;stroke:#d00000;stroke-width:0.0938" /><path
       d="m 372.844,586.021 c 6.801,0.024 14.588,-1.559 20.438,2.974 7.254,5.221 5.098,18.347 -3.27,21.235 -5.482,1.961 -11.391,0.928 -17.088,1.189 0.009,-8.498 0.011,-16.898 -0.08,-25.398 z"
       id="path3516"
       style="fill:#d00000;stroke:#d00000;stroke-width:0.0938" /><path
       d="m 226.662,597.415 c 4.813,10.35 9.429,20.898 14.145,31.351 -9.001,0.095 -18,0.295 -27.102,-0.105 4.385,-10.45 8.772,-20.8 12.957,-31.246 z"
       id="path3518"
       style="fill:#d00000;stroke:#d00000;stroke-width:0.0938" /><path
       d="m 249.052,706.18 c 11.881,-1.83 24.604,0.133 34.678,6.92 12.589,8.16 21.247,22.568 21.214,37.77 0.635,12.397 -4.229,24.848 -12.832,33.741 -8.499,9.296 -20.939,14.631 -33.438,15.067 -13.2,0.246 -26.554,-4.812 -35.659,-14.412 -11.225,-11.376 -15.916,-28.827 -11.784,-44.276 4.305,-17.743 19.85,-31.916 37.821,-34.81 z"
       id="path3520"
       style="fill:#ffffff;stroke:#ffffff;stroke-width:0.0938" /><path
       d="m 321.263,706.893 c 6.1,-0.069 12.199,-0.136 18.299,-0.201 12.502,18.262 24.703,36.731 37.102,54.995 0.256,-13.201 -0.186,-26.399 0.068,-39.602 0.342,-5.302 0.188,-10.504 0.127,-15.8 5.701,0.136 11.4,0.073 17.1,-0.09 -0.275,29.701 -0.051,59.305 0.074,89.005 -5.199,0.256 -10.4,0.113 -15.6,0.271 -13.416,-19.758 -26.434,-39.713 -39.85,-59.47 -0.186,20.005 0.434,39.897 -0.051,59.803 -5.797,0.164 -11.494,0.227 -17.195,0.29 -0.025,-29.803 0.149,-59.504 -0.074,-89.201 z"
       id="path3522"
       style="fill:#ffffff;stroke:#ffffff;stroke-width:0.0938" /><path
       d="m 251.236,723.056 c 9.382,-1.702 19.608,0.586 26.582,7.209 10.499,9.084 12.982,25.86 5.309,37.546 -6.874,11.573 -22.111,17.136 -34.862,12.78 -9.836,-3.191 -17.83,-11.808 -19.939,-21.884 -1.784,-7.68 -0.377,-16.097 3.949,-22.746 4.229,-6.646 11.278,-11.22 18.961,-12.905 z"
       id="path3524"
       style="fill:#d00000;stroke:#d00000;stroke-width:0.0938" /></g><g
     id="layer1" /><g
     id="layer2"><rect
       width="625.60663"
       height="864.40381"
       x="-13.862629"
       y="-3.6002061"
       id="rect3388-0"
       style="fill:#336791;fill-opacity:1;stroke:#d00000;stroke-width:0.09626844" /><flowRoot
       transform="translate(-727.54232,36.398313)"
       id="flowRoot4318"
       xml:space="preserve"
       style="font-size:40px;font-style:normal;font-variant:normal;font-weight:500;font-stretch:normal;text-align:center;line-height:125%;letter-spacing:0.92000002px;word-spacing:0.19px;writing-mode:lr-tb;text-anchor:middle;fill:#000000;fill-opacity:1;stroke:none;font-family:Sans Guilt MB;-inkscape-font-specification:Sans Guilt MB Medium"><flowRegion
         id="flowRegion4320"><rect
           width="594.15955"
           height="802.63776"
           x="734.74579"
           y="226.90678"
           id="rect4322"
           style="letter-spacing:0.92000002px;word-spacing:0.19px" /></flowRegion><flowPara
         id="flowPara4326"
         style="font-size:110px;font-style:normal;font-variant:normal;font-weight:bold;font-stretch:normal;line-height:110.00000238%;letter-spacing:1.24000001px;word-spacing:0.19px;fill:#ffffff;font-family:Cabin;-inkscape-font-specification:Cabin Bold">KEEP</flowPara><flowPara
         style="font-size:110px;font-style:normal;font-variant:normal;font-weight:bold;font-stretch:normal;line-height:110.00000238%;letter-spacing:1.24000001px;word-spacing:0.19px;fill:#ffffff;font-family:Cabin;-inkscape-font-specification:Cabin Bold"
         id="flowPara3097">CALM</flowPara><flowPara
         id="flowPara4330"
         style="font-size:66px;font-style:normal;font-variant:normal;font-weight:bold;font-stretch:normal;line-height:110.00000238%;letter-spacing:1.24000001px;word-spacing:0.19px;fill:#ffffff;font-family:Cabin;-inkscape-font-specification:Cabin Bold">AND</flowPara><flowPara
         style="font-size:110px;font-style:normal;font-variant:normal;font-weight:bold;font-stretch:normal;line-height:110.00000238000001218%;letter-spacing:1.51px;word-spacing:0.19000000000000000px;fill:#ffffff;font-family:Cabin;-inkscape-font-specification:Cabin Bold"
         id="flowPara3113">USE</flowPara><flowPara
         id="flowPara4332"
         style="font-size:110px;font-style:normal;font-variant:normal;font-weight:bold;font-stretch:normal;line-height:110.00000238%;letter-spacing:1.24000001px;word-spacing:0.19px;fill:#ffffff;font-family:Cabin;-inkscape-font-specification:Cabin Bold">POSTGRES</flowPara></flowRoot><g
       transform="matrix(0.52224532,0,0,0.52224532,196.08895,34.199069)"
       id="g3619"><path
         d="m 402.395,271.23 c -50.302,10.376 -53.76,-6.655 -53.76,-6.655 53.111,-78.808 75.313,-178.843 56.153,-203.326 -52.27,-66.785 -142.752,-35.2 -144.262,-34.38 l -0.486,0.087 c -9.938,-2.063 -21.06,-3.292 -33.56,-3.496 -22.761,-0.373 -40.026,5.967 -53.127,15.902 0,0 -161.411,-66.495 -153.904,83.63 1.597,31.938 45.776,241.657 98.471,178.312 19.26,-23.163 37.869,-42.748 37.869,-42.748 9.243,6.14 20.308,9.272 31.908,8.147 l 0.901,-0.765 c -0.28,2.876 -0.152,5.689 0.361,9.019 -13.575,15.167 -9.586,17.83 -36.723,23.416 -27.459,5.659 -11.328,15.734 -0.796,18.367 12.768,3.193 42.307,7.716 62.266,-20.224 l -0.796,3.188 c 5.319,4.26 9.054,27.711 8.428,48.969 -0.626,21.259 -1.044,35.854 3.147,47.254 4.191,11.4 8.368,37.05 44.042,29.406 29.809,-6.388 45.256,-22.942 47.405,-50.555 1.525,-19.631 4.976,-16.729 5.194,-34.28 l 2.768,-8.309 c 3.192,-26.611 0.507,-35.196 18.872,-31.203 l 4.463,0.392 c 13.517,0.615 31.208,-2.174 41.591,-7 22.358,-10.376 35.618,-27.7 13.573,-23.148 l 0.002,0 z"
         id="path2464"
         style="fill:#ffffff;fill-opacity:0;fill-rule:nonzero;stroke:#ffffff;stroke-width:12.46510029;stroke-linecap:round;stroke-linejoin:round;stroke-miterlimit:4;stroke-opacity:1"
         inkscape:connector-curvature="0" /><path
         d="m 215.866,286.484 c -1.385,49.516 0.348,99.377 5.193,111.495 4.848,12.118 15.223,35.688 50.9,28.045 29.806,-6.39 40.651,-18.756 45.357,-46.051 3.466,-20.082 10.148,-75.854 11.005,-87.281"
         id="path2466"
         style="fill:#ffffff;fill-opacity:0;fill-rule:nonzero;stroke:#ffffff;stroke-width:12.46510029;stroke-linecap:round;stroke-linejoin:round;stroke-miterlimit:4;stroke-opacity:1"
         inkscape:connector-curvature="0" /><path
         d="m 173.104,38.256 c 0,0 -161.521,-66.016 -154.012,84.109 1.597,31.938 45.779,241.664 98.473,178.316 19.256,-23.166 36.671,-41.335 36.671,-41.335"
         id="path2468"
         style="fill:#ffffff;fill-opacity:0;fill-rule:nonzero;stroke:#ffffff;stroke-width:12.46510029;stroke-linecap:round;stroke-linejoin:round;stroke-miterlimit:4;stroke-opacity:1"
         inkscape:connector-curvature="0" /><path
         d="m 260.349,26.207 c -5.591,1.753 89.848,-34.889 144.087,34.417 19.159,24.484 -3.043,124.519 -56.153,203.329"
         id="path2470"
         style="fill:#ffffff;fill-opacity:0;fill-rule:nonzero;stroke:#ffffff;stroke-width:12.46510029;stroke-linecap:round;stroke-linejoin:round;stroke-miterlimit:4;stroke-opacity:1"
         inkscape:connector-curvature="0" /><path
         d="m 348.282,263.953 c 0,0 3.461,17.036 53.764,6.653 22.04,-4.552 8.776,12.774 -13.577,23.155 -18.345,8.514 -59.474,10.696 -60.146,-1.069 -1.729,-30.355 21.647,-21.133 19.96,-28.739 -1.525,-6.85 -11.979,-13.573 -18.894,-30.338 -6.037,-14.633 -82.796,-126.849 21.287,-110.183 3.813,-0.789 -27.146,-99.002 -124.553,-100.599 -97.385,-1.597 -94.19,119.762 -94.19,119.762"
         id="path2472"
         style="fill:#ffffff;fill-opacity:0;fill-rule:nonzero;stroke:#ffffff;stroke-width:12.46510029;stroke-linecap:round;stroke-linejoin:bevel;stroke-miterlimit:4;stroke-opacity:1"
         inkscape:connector-curvature="0" /><path
         d="m 188.604,274.334 c -13.577,15.166 -9.584,17.829 -36.723,23.417 -27.459,5.66 -11.326,15.733 -0.797,18.365 12.768,3.195 42.307,7.718 62.266,-20.229 6.078,-8.509 -0.036,-22.086 -8.385,-25.547 -4.034,-1.671 -9.428,-3.765 -16.361,3.994 l 0,0 z"
         id="path2474"
         style="fill:#ffffff;fill-opacity:0;fill-rule:nonzero;stroke:#ffffff;stroke-width:12.46510029;stroke-linecap:round;stroke-linejoin:round;stroke-miterlimit:4;stroke-opacity:1"
         inkscape:connector-curvature="0" /><path
         d="m 187.715,274.069 c -1.368,-8.917 2.93,-19.528 7.536,-31.942 6.922,-18.626 22.893,-37.255 10.117,-96.339 -9.523,-44.029 -73.396,-9.163 -73.436,-3.193 -0.039,5.968 2.889,30.26 -1.067,58.548 -5.162,36.913 23.488,68.132 56.479,64.938"
         id="path2476"
         style="fill:#ffffff;fill-opacity:0;fill-rule:nonzero;stroke:#ffffff;stroke-width:12.46510029;stroke-linecap:round;stroke-linejoin:round;stroke-miterlimit:4;stroke-opacity:1"
         inkscape:connector-curvature="0" /><path
         d="m 172.517,141.7 c -0.288,2.039 3.733,7.48 8.976,8.207 5.234,0.73 9.714,-3.522 9.998,-5.559 0.284,-2.039 -3.732,-4.285 -8.977,-5.015 -5.237,-0.731 -9.719,0.333 -9.996,2.367 l -0.001,0 z"
         id="path2478"
         style="fill:#ffffff;fill-opacity:1;fill-rule:nonzero;stroke:#ffffff;stroke-width:4.15500021;stroke-linecap:butt;stroke-linejoin:miter;stroke-miterlimit:4;stroke-opacity:1"
         inkscape:connector-curvature="0" /><path
         d="m 331.941,137.543 c 0.284,2.039 -3.732,7.48 -8.976,8.207 -5.238,0.73 -9.718,-3.522 -10.005,-5.559 -0.277,-2.039 3.74,-4.285 8.979,-5.015 5.239,-0.73 9.718,0.333 10.002,2.368 l 0,-0.001 z"
         id="path2480"
         style="fill:#ffffff;fill-opacity:1;fill-rule:nonzero;stroke:#ffffff;stroke-width:2.0775001;stroke-linecap:butt;stroke-linejoin:miter;stroke-miterlimit:4;stroke-opacity:1"
         inkscape:connector-curvature="0" /><path
         d="m 350.676,123.432 c 0.863,15.994 -3.445,26.888 -3.988,43.914 -0.804,24.748 11.799,53.074 -7.191,81.435"
         id="path2482"
         style="fill:#ffffff;fill-opacity:0;fill-rule:nonzero;stroke:#ffffff;stroke-width:12.46510029;stroke-linecap:round;stroke-linejoin:round;stroke-miterlimit:4;stroke-opacity:1"
         inkscape:connector-curvature="0" /><path
         d=""
         id="path2484"
         style="fill-rule:nonzero;stroke:#ffffff;stroke-width:3;stroke-linecap:round;stroke-linejoin:round;stroke-miterlimit:4"
         inkscape:connector-curvature="0" /></g><flowRoot
       id="flowRoot4717"
       xml:space="preserve"
       style="font-size:40px;font-style:normal;font-variant:normal;font-weight:500;font-stretch:normal;text-align:center;line-height:125%;letter-spacing:0px;word-spacing:0px;writing-mode:lr-tb;text-anchor:middle;fill:#000000;fill-opacity:1;stroke:none;font-family:Sans Guilt MB;-inkscape-font-specification:Sans Guilt MB Medium"><flowRegion
         id="flowRegion4719"><rect
           width="323.25211"
           height="101.74788"
           x="365.57202"
           y="446.61017"
           id="rect4721" /></flowRegion><flowPara
         id="flowPara4723" /></flowRoot><flowRoot
       xml:space="preserve"
       id="flowRoot3089"
       style="fill:black;stroke:none;stroke-opacity:1;stroke-width:1px;stroke-linejoin:miter;stroke-linecap:butt;fill-opacity:1;font-family:Sans Guilt MB;font-style:normal;font-weight:500;font-size:40px;line-height:125%;letter-spacing:0px;word-spacing:0px;text-anchor:middle;text-align:center;-inkscape-font-specification:Sans Guilt MB Medium;font-stretch:normal;font-variant:normal;writing-mode:lr"><flowRegion
         id="flowRegion3091"><rect
           id="rect3093"
           width="368.33334"
           height="134.58333"
           x="-148.75"
           y="354.16666" /></flowRegion><flowPara
         id="flowPara3095"></flowPara></flowRoot></g></svg>